{
	"name" : "Seed Confirm Pro with EasySlip",
	"slug" : "seed-confirm-pro-easyslip-main",
	"author" : "<a href='https://easyslip.com/'>EasySlip</a>",
	"author_profile" : "<a href='https://easyslip.com/'>EasySlip</a>",
	"version" : "1.0.11",
	"download_url" : "https://gitlab.com/mangoutsource/seed-confirm-pro-easyslip/-/archive/main/seed-confirm-pro-easyslip-main.zip",
	"requires" : "3.0",
	"tested" : "6.4.2",
	"requires_php" : "8.0.0",
	"last_updated" : "2024-01-02 15:27:00",
	"sections" : {
		"description" : "1.0.11",
		"installation" : "Please click update",
		"changelog" : "1.0.11 - Fix bugs"
	},
	"banners" : {
		"low" : "",
		"high" : ""
	}
}
